NOBS;T;DECES;LOG_UREE;HB;PQ;INFJ0;AGE;SEXE;LOG_GB;FRACTURE;LOG_GBM;P_LYMP;P_MYEL;PROT_U;BENCE_J;PROT_S;GLOBULIN;CALCIUM;TEMPS
1;1,25;1;2,21;9,4;1;0;67;1;3,66;1;1,95;0;0;12;0;11;7;10;0,25
2;1,25;1;1,93;12;1;1;38;1;3,98;1;1,95;0;0;20;1;6;3;18;0,25
3;2;1;1,51;9,8;1;1;81;1;3,87;1;2;0;0;2;1;11;8;15;1
4;2;1;1,74;11,3;0;0;75;1;3,8;1;1,25;13;52;0;0;9;6;12;1
5;2;1;1,3;5,1;0;0;57;1;3,72;1;2;0;0;3;1;10;6;9;1
6;3;1;1,54;6,7;1;1;46;0;4,47;0;1,93;3;5;12;0;9;3;10;2
7;5;1;2,23;10,1;1;0;50;0;4,95;1;1,66;8;27;4;1;6;4;9;4
8;5;1;1,68;6,5;1;0;74;1;3,73;0;1,73;1;25;5;0;10;7;9;4
9;6;1;1,36;9;1;1;77;1;3,54;0;1,46;7;51;1;0;7;5;8;5
10;6;1;2,11;10,2;0;0;70;0;3,54;1;1,36;6;68;1;0;9;7;8;5
11;6;1;1,11;9,7;1;0;60;1;3,51;1;1,39;11;30;0;0;11;7;10;5
12;6;1;1,41;10,4;1;0;67;0;3,92;1;1,69;10;33;0;0;10;6;8;5
13;7;1;1,97;9,5;1;0;48;1;3,36;1;1,56;9;41;5;0;9;3;10;6
14;7;1;1,04;5,1;0;0;61;0;3,73;1;2;0;0;1;0;8;4;10;6
15;7;1;1,17;11,4;1;0;53;0;3,72;1;1,51;13;42;1;1;9;6;13;6
16;9;1;1,72;8,2;1;0;55;1;3,79;1;1,74;4;31;0;0;9;6;12;8
17;11;1;1,11;14;1;0;61;1;3,88;1;1,27;8;49;0;0;8;5;10;10
18;11;1;1,23;12;1;0;43;1;3,77;1;1,17;7;48;1;1;12;8;9;10
19;11;1;1,3;13,2;1;0;65;1;3,79;1;1,81;4;21;1;0;8;4;10;10
20;11;1;1,56;7,5;1;0;70;1;3,88;0;1,67;5;35;0;0;7;5;12;10
21;11;1;1,07;9,6;1;0;51;0;3,5;1;1,9;5;10;0;0;7;3;9;10
22;13;1;0,77;5,5;0;1;60;0;3,57;1;1,39;12;55;2;0;10;8;10;12
23;14;1;1,39;14,6;1;1;66;1;3,72;1;1,25;7;51;2;1;9;4;10;13
24;15;1;1,6;10,6;1;0;70;1;3,69;1;1,43;16;46;0;0;9;5;11;14
25;16;1;1,34;9;1;0;48;1;3,93;1;2;0;0;0;0;8;4;10;15
26;16;1;1,32;8,8;1;0;62;0;3,69;1;0,69;5;41;17;0;8;4;10;15
27;17;1;1,23;10;1;0;53;1;3,88;1;1,44;9;50;4;0;10;7;9;16
28;17;1;1,59;11,2;1;1;68;1;3,43;0;1,61;1;46;1;0;9;6;10;16
29;18;1;1,44;7,5;1;0;65;0;3,56;0;0,9;17;46;7;0;6;4;8;17
30;19;1;1,07;14,4;1;0;51;1;3,91;1;2;0;0;6;0;13;7;15;18
31;19;1;1,25;7,5;0;0;60;0;3,79;1;1,92;2;10;5;1;6;3;9;18
32;24;1;1,3;14,6;1;0;56;0;4,08;1;0,47;12;52;0;0;4;3;9;23
33;25;1;1;12,4;1;0;67;1;3,81;1;1,64;3;23;0;0;7;3;10;24
34;26;1;1,23;11,2;1;0;49;0;3,6;1;2;0;0;27;1;6;3;11;25
35;32;1;1,32;10,6;1;0;46;1;3,69;1;1,63;6;32;1;0;12;8;9;31
36;35;1;1,11;7;0;0;48;1;3,65;1;1,17;16;42;4;1;12;9;10;34
37;37;1;1,6;11;1;0;63;1;3,95;0;1,2;10;53;7;1;7;4;9;36
38;41;1;1;10,2;1;0;69;1;3,47;1;1,47;5;30;6;1;10;6;10;40
39;41;1;1,14;5;1;0;70;0;3,51;1;1,34;18;53;0;0;7;4;9;40
40;51;1;1,56;7,7;0;0;74;1;3,41;1;1,04;10;50;4;1;12;8;13;50
41;52;1;1;10,1;1;0;60;0;3,85;1;1,65;1;27;4;1;10;7;10;51
42;54;1;1,25;9;1;0;49;1;3,72;1;1,69;8;37;2;1;8;3;10;53
43;58;1;1,2;12,1;1;0;42;0;3,69;1;1,57;9;35;22;1;7;4;10;57
44;66;1;1,44;6,6;1;0;59;1;3,78;1;1,81;4;22;0;0;5;3;9;65
45;67;1;1,32;12,8;1;0;52;1;3,64;1;1,04;24;54;1;1;11;7;10;66
46;88;1;1,17;10,6;1;0;47;0;3,55;0;1,75;22;17;21;1;6;3;9;87
47;89;1;1,32;14;1;1;63;1;3,65;1;1,62;7;38;1;1;9;7;9;88
48;92;1;1,43;11;1;0;58;0;4,07;1;1,41;12;36;4;1;9;6;11;91
49;4;0;1,95;10,2;1;0;59;1;4,04;0;0,77;21;51;12;1;7;3;10;3
50;4;0;1,92;10;1;1;49;0;3,95;0;1,62;21;24;0;0;17;12;13;3
51;7;0;1,11;12,4;1;0;48;0;3,79;1;1,85;1;11;0;0;6;3;10;6
52;7;0;1,53;10,2;1;1;81;1;3,59;0;1,88;1;16;0;0;12;10;11;6
53;8;0;1,07;9,9;1;0;57;0;3,83;1;1,65;1;40;0;0;8;4;8;7
54;12;0;1,14;11,8;1;0;46;0;3,64;0;1,14;7;47;0;0;7;3;7;11
55;11;0;1,61;14;1;0;60;1;3,73;1;1,84;0;0;3;1;6;2;9;10
56;12;0;1,39;8,8;1;0;66;0;3,83;1;1,36;8;50;0;0;9;5;9;11
57;13;0;1,66;4,9;0;0;71;0;3,64;0;1,79;2;21;0;0;10;11;9;12
58;16;0;1,14;13;1;0;55;1;3,85;0;0,9;13;53;0;0;9;5;9;15
59;19;0;1,32;13;1;0;59;0;3,77;1;2;0;0;1;0;8;4;10;18
60;19;0;1,32;10,8;1;0;69;0;3,88;1;1,51;0;0;0;0;10;7;10;18
61;28;0;1,23;7,3;1;1;82;0;3,74;1;1,67;7;40;0;0;7;4;9;27
62;41;0;1,75;12,8;1;0;72;1;3,72;1;1,44;2;56;1;1;7;3;9;40
63;53;0;1,11;12;1;0;66;1;3,61;1;2;0;0;1;0;6;3;11;52
64;57;0;1,25;12,5;1;0;66;1;3,96;0;1,95;0;0;0;0;8;4;11;56
65;77;0;1,07;14;1;0;60;1;3,68;0;0,95;4;50;0;0;6;3;12;76
